\relax 
\providecommand\hyper@newdestlabel[2]{}
\providecommand\HyField@AuxAddToFields[1]{}
\providecommand\HyField@AuxAddToCoFields[2]{}
\providecommand \oddpage@label [2]{}
\@writefile{toc}{\contentsline {section}{\numberline {1}Algorithmes classiques}{3}{section.0.1}\protected@file@percent }
\@writefile{toc}{\contentsline {subsection}{\numberline {}Recherche du minimum d'un tableau}{3}{subsection.0.1.1}\protected@file@percent }
\@writefile{toc}{\contentsline {subsection}{\numberline {}Algorithme d'Euclide}{3}{subsection.0.1.2}\protected@file@percent }
\@writefile{toc}{\contentsline {subsection}{\numberline {}Exponentiation rapide}{3}{subsection.0.1.3}\protected@file@percent }
\@writefile{toc}{\contentsline {subsection}{\numberline {}Insertion d'un élément dans une liste triée}{4}{subsection.0.1.4}\protected@file@percent }
\@writefile{toc}{\contentsline {subsection}{\numberline {}Produit matriciel naïf}{4}{subsection.0.1.5}\protected@file@percent }
\@writefile{toc}{\contentsline {subsection}{\numberline {}Evaluation de polynôme via la méthode de Horner}{4}{subsection.0.1.6}\protected@file@percent }
\@writefile{toc}{\contentsline {subsection}{\numberline {}Décomposition en base $b$}{4}{subsection.0.1.7}\protected@file@percent }
\@writefile{toc}{\contentsline {subsection}{\numberline {}Recherche par dichotomie dans un tableau trié}{5}{subsection.0.1.8}\protected@file@percent }
\@writefile{toc}{\contentsline {subsection}{\numberline {}Calcul du miroir d'une liste en temps linéaire en sa taille}{5}{subsection.0.1.9}\protected@file@percent }
\@writefile{toc}{\contentsline {subsection}{\numberline {}MinMax}{6}{subsection.0.1.10}\protected@file@percent }
\@writefile{toc}{\contentsline {subsection}{\numberline {}Quine}{8}{subsection.0.1.11}\protected@file@percent }
\@writefile{toc}{\contentsline {section}{\numberline {2}Algorithmes de tri}{10}{section.0.2}\protected@file@percent }
\@writefile{toc}{\contentsline {subsection}{\numberline {}Tri par insertion}{10}{subsection.0.2.1}\protected@file@percent }
\@writefile{loa}{\contentsline {algorithm}{\numberline {1}{\ignorespaces Tri par insertion}}{10}{algorithm.1}\protected@file@percent }
\@writefile{toc}{\contentsline {subsection}{\numberline {}Tri par sélection}{11}{subsection.0.2.2}\protected@file@percent }
\@writefile{toc}{\contentsline {subsection}{\numberline {}Tri fusion}{12}{subsection.0.2.3}\protected@file@percent }
\@writefile{toc}{\contentsline {subsection}{\numberline {}Tri par tas}{13}{subsection.0.2.4}\protected@file@percent }
\@writefile{toc}{\contentsline {subsection}{\numberline {}Tri rapide}{14}{subsection.0.2.5}\protected@file@percent }
\@writefile{toc}{\contentsline {section}{\numberline {3}Algorithmes sur les graphes}{15}{section.0.3}\protected@file@percent }
\@writefile{toc}{\contentsline {subsection}{\numberline {}Parcours en profondeur}{15}{subsection.0.3.1}\protected@file@percent }
\@writefile{loa}{\contentsline {algorithm}{\numberline {2}{\ignorespaces Parcours en profondeur}}{15}{algorithm.2}\protected@file@percent }
\@writefile{toc}{\contentsline {subsection}{\numberline {}Parcours en largeur}{16}{subsection.0.3.2}\protected@file@percent }
\@writefile{toc}{\contentsline {subsection}{\numberline {}Dijkstra}{17}{subsection.0.3.3}\protected@file@percent }
\@writefile{loa}{\contentsline {algorithm}{\numberline {3}{\ignorespaces Dijkstra}}{17}{algorithm.3}\protected@file@percent }
\@writefile{toc}{\contentsline {subsection}{\numberline {}A*}{18}{subsection.0.3.4}\protected@file@percent }
\@writefile{loa}{\contentsline {algorithm}{\numberline {4}{\ignorespaces $A^*$}}{19}{algorithm.4}\protected@file@percent }
\@writefile{toc}{\contentsline {subsection}{\numberline {}Floyd-Warshall}{20}{subsection.0.3.5}\protected@file@percent }
\@writefile{loa}{\contentsline {algorithm}{\numberline {5}{\ignorespaces Floyd-Warshall}}{20}{algorithm.5}\protected@file@percent }
\@writefile{toc}{\contentsline {subsection}{\numberline {}Kruskal}{21}{subsection.0.3.6}\protected@file@percent }
\@writefile{toc}{\contentsline {subsection}{\numberline {}Tri topologique}{23}{subsection.0.3.7}\protected@file@percent }
\@writefile{toc}{\contentsline {subsection}{\numberline {}Détection de cycle dans un graphe orienté}{24}{subsection.0.3.8}\protected@file@percent }
\@writefile{toc}{\contentsline {subsection}{\numberline {}Kosaraju}{25}{subsection.0.3.9}\protected@file@percent }
\@writefile{lof}{\contentsline {figure}{\numberline {1}{\ignorespaces Composantes fortement connexes d'un graphe et son méta-graphe.}}{25}{figure.caption.1}\protected@file@percent }
\@writefile{lof}{\contentsline {figure}{\numberline {2}{\ignorespaces Exemple du déroulé de l'algorithme de Kosaraju-Sharir.}}{26}{figure.caption.2}\protected@file@percent }
\@writefile{toc}{\contentsline {subsection}{\numberline {}Calcul de couplage maximal dans un graphe biparti}{27}{subsection.0.3.10}\protected@file@percent }
\providecommand*\caption@xref[2]{\@setref\relax\@undefined{#1}}
\newlabel{b}{{\caption@xref {b}{ on input line 1628}}{27}{Calcul de couplage maximal dans un graphe biparti}{subsection.0.3.10}{}}
\@writefile{toc}{\contentsline {section}{\numberline {4}Algorithmes sur les automates}{28}{section.0.4}\protected@file@percent }
\@writefile{toc}{\contentsline {subsection}{\numberline {}Elimination des états}{28}{subsection.0.4.1}\protected@file@percent }
\@writefile{toc}{\contentsline {subsection}{\numberline {}Berry-Sethi}{30}{subsection.0.4.2}\protected@file@percent }
\@writefile{toc}{\contentsline {section}{\numberline {5}Algorithmes textuels}{31}{section.0.5}\protected@file@percent }
\@writefile{toc}{\contentsline {subsection}{\numberline {}Huffman}{31}{subsection.0.5.1}\protected@file@percent }
\@writefile{toc}{\contentsline {subsection}{\numberline {}Boyer Moore}{33}{subsection.0.5.2}\protected@file@percent }
\@writefile{toc}{\contentsline {subsection}{\numberline {}Rabin-Karp}{35}{subsection.0.5.3}\protected@file@percent }
\@writefile{toc}{\contentsline {subsection}{\numberline {}LZW}{37}{subsection.0.5.4}\protected@file@percent }
\@writefile{loa}{\contentsline {algorithm}{\numberline {6}{\ignorespaces LZW}}{37}{algorithm.6}\protected@file@percent }
\@writefile{toc}{\contentsline {section}{\numberline {6}Algorithmes de synchronisation}{39}{section.0.6}\protected@file@percent }
\@writefile{toc}{\contentsline {subsection}{\numberline {}Peterson}{39}{subsection.0.6.1}\protected@file@percent }
\@writefile{loa}{\contentsline {algorithm}{\numberline {7}{\ignorespaces Algorithme de Peterson}}{39}{algorithm.7}\protected@file@percent }
\@writefile{toc}{\contentsline {subsection}{\numberline {}Boulangerie de Lamport}{39}{subsection.0.6.2}\protected@file@percent }
\@writefile{loa}{\contentsline {algorithm}{\numberline {8}{\ignorespaces Boulangerie de Lamport}}{40}{algorithm.8}\protected@file@percent }
\@writefile{toc}{\contentsline {section}{\numberline {7}Algorithmes d'apprentissage automatique}{41}{section.0.7}\protected@file@percent }
\@writefile{toc}{\contentsline {subsection}{\numberline {}$k$ plus proches voisins}{41}{subsection.0.7.1}\protected@file@percent }
\@writefile{lof}{\contentsline {figure}{\numberline {3}{\ignorespaces Illustration du principe de l'algorithme}}{41}{figure.caption.5}\protected@file@percent }
\@writefile{toc}{\contentsline {subsection}{\numberline {}ID3}{42}{subsection.0.7.2}\protected@file@percent }
\@writefile{lof}{\contentsline {figure}{\numberline {4}{\ignorespaces Construction de l'arbre pour ID3.}}{42}{figure.caption.6}\protected@file@percent }
\@writefile{toc}{\contentsline {subsection}{\numberline {}$k$ moyennes}{43}{subsection.0.7.3}\protected@file@percent }
\@writefile{lof}{\contentsline {figure}{\numberline {5}{\ignorespaces Illustration de l'algorithme pour $k=3$.}}{43}{figure.caption.7}\protected@file@percent }
\@writefile{toc}{\contentsline {subsection}{\numberline {}Classification hiérarchique ascendante}{44}{subsection.0.7.4}\protected@file@percent }
\@writefile{loa}{\contentsline {algorithm}{\numberline {9}{\ignorespaces Algorithme CHA}}{44}{algorithm.9}\protected@file@percent }
\@writefile{toc}{\contentsline {section}{\numberline {8}Structures de données}{45}{section.0.8}\protected@file@percent }
\@writefile{toc}{\contentsline {subsection}{\numberline {}Implémentation d'une pile par liste chaînée}{45}{subsection.0.8.1}\protected@file@percent }
\@writefile{toc}{\contentsline {subsection}{\numberline {}Implémentation d'une file par liste chaînée}{46}{subsection.0.8.2}\protected@file@percent }
\@writefile{toc}{\contentsline {subsection}{\numberline {}Implémentation d'une file par tableau circulaire}{47}{subsection.0.8.3}\protected@file@percent }
\@writefile{toc}{\contentsline {subsection}{\numberline {}Unir et trouver}{48}{subsection.0.8.4}\protected@file@percent }
\@writefile{toc}{\contentsline {subsection}{\numberline {}Arbre binaire de recherche}{50}{subsection.0.8.5}\protected@file@percent }
\@writefile{toc}{\contentsline {subsection}{\numberline {}Arbre AVL}{52}{subsection.0.8.6}\protected@file@percent }
\@writefile{toc}{\contentsline {subsection}{\numberline {}Arbres rouge-noir}{54}{subsection.0.8.7}\protected@file@percent }
\@writefile{toc}{\contentsline {subsection}{\numberline {}Tas min}{55}{subsection.0.8.8}\protected@file@percent }
\ttl@finishall
\gdef \@abspage@last{56}
